{
    "page": 1,
    "total_results": 10000,
    "total_pages": 500,
    "results": [
        {
            "popularity": 223.791,
            "vote_count": 772,
            "video": false,
            "poster_path": "/bOKjzWDxiDkgEQznhzP4kdeAHNI.jpg",
            "id": 605116,
            "adult": false,
            "backdrop_path": "/qVygtf2vU15L2yKS4Ke44U4oMdD.jpg",
            "original_language": "en",
            "original_title": "Project Power",
            "genre_ids": [
                28,
                80,
                878
            ],
            "title": "Project Power",
            "vote_average": 6.7,
            "overview": "An ex-soldier, a teen and a cop collide in New Orleans as they hunt for the source behind a dangerous new pill that grants users temporary superpowers.",
            "release_date": "2020-08-14"
        },
        {
            "popularity": 196.491,
            "vote_count": 63,
            "video": false,
            "poster_path": "/k68nPLbIST6NP96JmTxmZijEvCA.jpg",
            "id": 577922,
            "adult": false,
            "backdrop_path": "/wzJRB4MKi3yK138bJyuL9nx47y6.jpg",
            "original_language": "en",
            "original_title": "Tenet",
            "genre_ids": [
                28,
                53
            ],
            "title": "Tenet",
            "vote_average": 7.3,
            "overview": "Armed with only one word - Tenet - and fighting for the survival of the entire world, the Protagonist journeys through a twilight world of international espionage on a mission that will unfold in something beyond real time.",
            "release_date": "2020-08-22"
        },
        {
            "popularity": 158.878,
            "vote_count": 52,
            "video": false,
            "poster_path": "/uOw5JD8IlD546feZ6oxbIjvN66P.jpg",
            "id": 718444,
            "adult": false,
            "backdrop_path": "/jvKIBaMssk3D7ZH4VF4rLz6A3OK.jpg",
            "original_language": "en",
            "original_title": "Rogue",
            "genre_ids": [
                28
            ],
            "title": "Rogue",
            "vote_average": 5.9,
            "overview": "Battle-hardened O’Hara leads a lively mercenary team of soldiers on a daring mission: rescue hostages from their captors in remote Africa. But as the mission goes awry and the team is stranded, O’Hara’s squad must face a bloody, brutal encounter with a gang of rebels.",
            "release_date": "2020-08-20"
        },
        {
            "popularity": 137.034,
            "vote_count": 50,
            "video": false,
            "poster_path": "/e7ZsW5EbLbQwoGx0548KCmCAXA9.jpg",
            "id": 508570,
            "adult": false,
            "backdrop_path": "/fFdOJxmG2U7IYYlkFKtDk1nGPhF.jpg",
            "original_language": "en",
            "original_title": "The One and Only Ivan",
            "genre_ids": [
                35,
                18,
                10751
            ],
            "title": "The One and Only Ivan",
            "vote_average": 7.3,
            "overview": "Ivan is a 400-pound silverback gorilla who shares a communal habitat in a suburban shopping mall with Stella the elephant, Bob the dog, and various other animals. He has few memories of the jungle where he was captured, but when a baby elephant named Ruby arrives, it touches something deep within him. Ruby is recently separated from her family in the wild, which causes him to question his life, where he comes from and where he ultimately wants to be.",
            "release_date": "2020-08-21"
        },
        {
            "popularity": 137,
            "vote_count": 75,
            "video": false,
            "poster_path": "/A3z0KMLIEGL22mVrgaV7KDxKRmT.jpg",
            "id": 539885,
            "adult": false,
            "backdrop_path": "/ekkuqt9Q2ad1F7xq2ZONP0oq36P.jpg",
            "original_language": "en",
            "original_title": "Ava",
            "genre_ids": [
                28,
                80,
                18,
                53
            ],
            "title": "Ava",
            "vote_average": 6.5,
            "overview": "A black ops assassin is forced to fight for her own survival after a job goes dangerously wrong.",
            "release_date": "2020-08-06"
        },
        {
            "popularity": 133.493,
            "vote_count": 154,
            "video": false,
            "poster_path": "/hlb0iUmKwZX3Qd6qiIvyEROGxbm.jpg",
            "id": 621013,
            "adult": false,
            "backdrop_path": "/pGTXJcZQIgqzFZlWy6KxlamlTHK.jpg",
            "original_language": "en",
            "original_title": "Chemical Hearts",
            "genre_ids": [
                18,
                10749
            ],
            "title": "Chemical Hearts",
            "vote_average": 8.1,
            "overview": "A high school transfer student finds a new passion when she begins to work on the school's newspaper.",
            "release_date": "2020-08-21"
        },
        {
            "popularity": 129.381,
            "vote_count": 5077,
            "video": false,
            "poster_path": "/azL2ThbJMIkts3ZMt3j1YgBUeDB.jpg",
            "id": 98566,
            "adult": false,
            "backdrop_path": "/3eGlcdyxqEN57TtU8ypx52V4JMs.jpg",
            "original_language": "en",
            "original_title": "Teenage Mutant Ninja Turtles",
            "genre_ids": [
                28,
                12,
                35,
                14,
                878
            ],
            "title": "Teenage Mutant Ninja Turtles",
            "vote_average": 5.9,
            "overview": "The city needs heroes. Darkness has settled over New York City as Shredder and his evil Foot Clan have an iron grip on everything from the police to the politicians. The future is grim until four unlikely outcast brothers rise from the sewers and discover their destiny as Teenage Mutant Ninja Turtles. The Turtles must work with fearless reporter April and her wise-cracking cameraman Vern Fenwick to save the city and unravel Shredder's diabolical plan.",
            "release_date": "2014-08-07"
        },
        {
            "popularity": 115.062,
            "vote_count": 57,
            "video": false,
            "poster_path": "/9iEc34Qje2V3FZnrSXKfZsbiHjW.jpg",
            "id": 626393,
            "adult": false,
            "backdrop_path": "/mQngZ4DtXqdkX9fOQRsm9iym5OW.jpg",
            "original_language": "en",
            "original_title": "The Sleepover",
            "genre_ids": [
                28,
                10751
            ],
            "title": "The Sleepover",
            "vote_average": 6.9,
            "overview": "Two siblings who discover their seemingly normal mom is a former thief in witness protection. Mom is forced to pull one last job, and the kids team up to rescue her over the course of an action-packed night.",
            "release_date": "2020-08-21"
        },
        {
            "popularity": 111.224,
            "vote_count": 57,
            "video": false,
            "poster_path": "/767iTVV7BV6p7KJ73uH4F2nqdWd.jpg",
            "id": 618354,
            "adult": false,
            "backdrop_path": "/bazlsLkNuhy3IuhviepqvlMm2hV.jpg",
            "original_language": "en",
            "original_title": "Superman: Man of Tomorrow",
            "genre_ids": [
                28,
                16,
                878
            ],
            "title": "Superman: Man of Tomorrow",
            "vote_average": 7.8,
            "overview": "It’s the dawn of a new age of heroes, and Metropolis has just met its first. But as Daily Planet intern Clark Kent – working alongside reporter Lois Lane – secretly wields his alien powers of flight, super-strength and x-ray vision in the battle for good, there’s even greater trouble on the horizon.",
            "release_date": "2020-08-23"
        },
        {
            "popularity": 107.195,
            "vote_count": 19420,
            "video": false,
            "poster_path": "/7WsyChQLEftFiDOVTGkv3hFpyyt.jpg",
            "id": 299536,
            "adult": false,
            "backdrop_path": "/bOGkgRGdhrBYJSLpXaxhXVstddV.jpg",
            "original_language": "en",
            "original_title": "Avengers: Infinity War",
            "genre_ids": [
                28,
                12,
                878
            ],
            "title": "Avengers: Infinity War",
            "vote_average": 8.3,
            "overview": "As the Avengers and their allies have continued to protect the world from threats too large for any one hero to handle, a new danger has emerged from the cosmic shadows: Thanos. A despot of intergalactic infamy, his goal is to collect all six Infinity Stones, artifacts of unimaginable power, and use them to inflict his twisted will on all of reality. Everything the Avengers have fought for has led up to this moment - the fate of Earth and existence itself has never been more uncertain.",
            "release_date": "2018-04-25"
        },
        {
            "popularity": 92.292,
            "vote_count": 2,
            "video": false,
            "poster_path": "/xrI4EnZWftpo1B7tTvlMUXVOikd.jpg",
            "id": 340102,
            "adult": false,
            "backdrop_path": "/p9pFLEi0QEaukxJqMIfEzPtprrv.jpg",
            "original_language": "en",
            "original_title": "The New Mutants",
            "genre_ids": [
                28,
                12,
                27,
                878
            ],
            "title": "The New Mutants",
            "vote_average": 6,
            "overview": "Five young mutants, just discovering their abilities while held in a secret facility against their will, fight to escape their past sins and save themselves.",
            "release_date": "2020-08-26"
        },
        {
            "popularity": 90.029,
            "vote_count": 14443,
            "video": false,
            "poster_path": "/udDclJoHjfjb8Ekgsd4FDteOkCU.jpg",
            "id": 475557,
            "adult": false,
            "backdrop_path": "/n6bUvigpRFqSwmPp1m2YADdbRBc.jpg",
            "original_language": "en",
            "original_title": "Joker",
            "genre_ids": [
                80,
                18,
                53
            ],
            "title": "Joker",
            "vote_average": 8.2,
            "overview": "During the 1980s, a failed stand-up comedian is driven insane and turns to a life of crime and chaos in Gotham City while becoming an infamous psychopathic crime figure.",
            "release_date": "2019-10-02"
        },
        {
            "popularity": 88.48,
            "vote_count": 16865,
            "video": false,
            "poster_path": "/8tZYtuWezp8JbcsvHYO0O46tFbo.jpg",
            "id": 76341,
            "adult": false,
            "backdrop_path": "/nlCHUWjY9XWbuEUQauCBgnY8ymF.jpg",
            "original_language": "en",
            "original_title": "Mad Max: Fury Road",
            "genre_ids": [
                28,
                12,
                878
            ],
            "title": "Mad Max: Fury Road",
            "vote_average": 7.5,
            "overview": "An apocalyptic story set in the furthest reaches of our planet, in a stark desert landscape where humanity is broken, and most everyone is crazed fighting for the necessities of life. Within this world exist two rebels on the run who just might be able to restore order.",
            "release_date": "2015-05-13"
        },
        {
            "popularity": 85.887,
            "vote_count": 16373,
            "video": false,
            "poster_path": "/4ssDuvEDkSArWEdyBl2X5EHvYKU.jpg",
            "id": 99861,
            "adult": false,
            "backdrop_path": "/8i6ZDk97Vyh0jHohMG4vFeFuKJh.jpg",
            "original_language": "en",
            "original_title": "Avengers: Age of Ultron",
            "genre_ids": [
                28,
                12,
                878
            ],
            "title": "Avengers: Age of Ultron",
            "vote_average": 7.3,
            "overview": "When Tony Stark tries to jumpstart a dormant peacekeeping program, things go awry and Earth’s Mightiest Heroes are put to the ultimate test as the fate of the planet hangs in the balance. As the villainous Ultron emerges, it is up to The Avengers to stop him from enacting his terrible plans, and soon uneasy alliances and unexpected action pave the way for an epic and unique global adventure.",
            "release_date": "2015-04-22"
        },
        {
            "popularity": 82.428,
            "vote_count": 9511,
            "video": false,
            "poster_path": "/eifGNCSDuxJeS1loAXil5bIGgvC.jpg",
            "id": 141052,
            "adult": false,
            "backdrop_path": "/jorgjEk6a0bed6jdR5wu4S6ZvRm.jpg",
            "original_language": "en",
            "original_title": "Justice League",
            "genre_ids": [
                28,
                12,
                14,
                878
            ],
            "title": "Justice League",
            "vote_average": 6.2,
            "overview": "Fuelled by his restored faith in humanity and inspired by Superman's selfless act, Bruce Wayne and Diana Prince assemble a team of metahumans consisting of Barry Allen, Arthur Curry and Victor Stone to face the catastrophic threat of Steppenwolf and the Parademons who are on the hunt for three Mother Boxes on Earth.",
            "release_date": "2017-11-15"
        },
        {
            "popularity": 80.566,
            "vote_count": 16688,
            "video": false,
            "poster_path": "/rAGiXaUfPzY7CDEyNKUofk3Kw2e.jpg",
            "id": 271110,
            "adult": false,
            "backdrop_path": "/7FWlcZq3r6525LWOcvO9kNWurN1.jpg",
            "original_language": "en",
            "original_title": "Captain America: Civil War",
            "genre_ids": [
                28,
                12,
                878
            ],
            "title": "Captain America: Civil War",
            "vote_average": 7.4,
            "overview": "Following the events of Age of Ultron, the collective governments of the world pass an act designed to regulate all superhuman activity. This polarizes opinion amongst the Avengers, causing two factions to side with Iron Man or Captain America, which causes an epic battle between former allies.",
            "release_date": "2016-04-27"
        },
        {
            "popularity": 79.996,
            "vote_count": 26925,
            "video": false,
            "poster_path": "/9gk7adHYeDvHkCSEqAvQNLV5Uge.jpg",
            "id": 27205,
            "adult": false,
            "backdrop_path": "/s3TBrRGB1iav7gFOCNx3H31MoES.jpg",
            "original_language": "en",
            "original_title": "Inception",
            "genre_ids": [
                28,
                12,
                878
            ],
            "title": "Inception",
            "vote_average": 8.3,
            "overview": "Cobb, a skilled thief who commits corporate espionage by infiltrating the subconscious of his targets is offered a chance to regain his old life as payment for a task considered to be impossible: \"inception\", the implantation of another person's idea into a target's subconscious.",
            "release_date": "2010-07-15"
        },
        {
            "popularity": 79.745,
            "vote_count": 46,
            "video": false,
            "poster_path": "/eAUzmhP54bE1vPXaY7FbuZREJlR.jpg",
            "id": 594718,
            "adult": false,
            "backdrop_path": "/mBbA77FyzhU0Tz9tmbKG8heGmh3.jpg",
            "original_language": "ru",
            "original_title": "Спутник",
            "genre_ids": [
                18,
                27,
                878
            ],
            "title": "Sputnik",
            "vote_average": 6.2,
            "overview": "At the height of the Cold War, a Soviet spacecraft crash lands after a mission gone awry, leaving the commander as its only survivor. After a renowned Russian psychologist is brought in to evaluate the commander’s mental state, it becomes clear that something dangerous may have come back to Earth with him…",
            "release_date": "2020-07-14"
        },
        {
            "popularity": 73.341,
            "vote_count": 8163,
            "video": false,
            "poster_path": "/4q2NNj4S5dG2RLF9CpXsej7yXl.jpg",
            "id": 429617,
            "adult": false,
            "backdrop_path": "/5myQbDzw3l8K9yofUXRJ4UTVgam.jpg",
            "original_language": "en",
            "original_title": "Spider-Man: Far from Home",
            "genre_ids": [
                28,
                12,
                878
            ],
            "title": "Spider-Man: Far from Home",
            "vote_average": 7.5,
            "overview": "Peter Parker and his friends go on a summer trip to Europe. However, they will hardly be able to rest - Peter will have to agree to help Nick Fury uncover the mystery of creatures that cause natural disasters and destruction throughout the continent.",
            "release_date": "2019-06-28"
        },
        {
            "popularity": 72.457,
            "vote_count": 23461,
            "video": false,
            "poster_path": "/gEU2QniE6E77NI6lCU6MxlNBvIx.jpg",
            "id": 157336,
            "adult": false,
            "backdrop_path": "/xJHokMbljvjADYdit5fK5VQsXEG.jpg",
            "original_language": "en",
            "original_title": "Interstellar",
            "genre_ids": [
                12,
                18,
                878
            ],
            "title": "Interstellar",
            "vote_average": 8.3,
            "overview": "The adventures of a group of explorers who make use of a newly discovered wormhole to surpass the limitations on human space travel and conquer the vast distances involved in an interstellar voyage.",
            "release_date": "2014-11-05"
        }
    ]
}